module online-store

go 1.16

require (
	github.com/dgrijalva/jwt-go v3.2.0+incompatible // indirect
	github.com/gorilla/mux v1.8.0
	github.com/jinzhu/gorm v1.9.16
	github.com/joho/godotenv v1.4.0
	github.com/thedevsaddam/govalidator v1.9.10 // indirect
	golang.org/x/crypto v0.0.0-20210921155107-089bfa567519 // indirect
)
